initialized lcg1 (m=126,a=43,c=25,x=25)
initialized lcg2 (m=38875,a=1556,c=1234,x=1234)
initialized lcg3 (m=4611686018427387904,a=5,c=961168601842738797,x=961168601842738797)
initialized error test lcg4 (m=4,a=5,c=3,x=3)
initialized error test lcg5 (m=0,a=0,c=0,x=0)
initialized error test lcg6 (m=5,a=6,c=0,x=0)
test lcg1
25
92
75
100
41
24
49
116
99
124
test lcg2
1234
16463
37912
18931
29495
22954
30408
5207
17326
20115
test lcg3
961168601842738797
1155325592629044878
2126110546560575283
2368349297790839404
3579543053942160009
412139797843987226
3021867591062674927
2235448501873949720
2915039074357711589
1701305918349133030
lcg1 after first test (m=126,a=43,c=25,x=65)
lcg2 after first test (m=38875,a=1556,c=1234,x=5799)
lcg3 after first test (m=4611686018427387904,a=5,c=961168601842738797,x=244326156733628139)
test lcg1 again
65
48
73
14
123
22
89
72
97
38
21
46
113
96
121
62
45
70
11
120
lcg1 after second test (m=126,a=43,c=25,x=19)
